[
  {
    "word": "things"
  },
  {
    "word": "thing"
  },
  {
    "word": "man"
  },
  {
    "word": "way"
  },
  {
    "word": "place"
  },
  {
    "word": "power"
  },
  {
    "word": "woman"
  },
  {
    "word": "work"
  },
  {
    "word": "experience"
  },
  {
    "word": "works"
  },
  {
    "word": "book"
  },
  {
    "word": "story"
  },
  {
    "word": "opportunity"
  },
  {
    "word": "day"
  },
  {
    "word": "person"
  },
  {
    "word": "world"
  },
  {
    "word": "stories"
  },
  {
    "word": "sight"
  },
  {
    "word": "idea"
  },
  {
    "word": "job"
  },
  {
    "word": "gift"
  },
  {
    "word": "feeling"
  },
  {
    "word": "news"
  },
  {
    "word": "effect"
  },
  {
    "word": "sense"
  },
  {
    "word": "change"
  },
  {
    "word": "country"
  },
  {
    "word": "powers"
  },
  {
    "word": "manner"
  },
  {
    "word": "success"
  },
  {
    "word": "example"
  },
  {
    "word": "eyes"
  },
  {
    "word": "view"
  },
  {
    "word": "results"
  },
  {
    "word": "piece"
  },
  {
    "word": "beauty"
  },
  {
    "word": "girl"
  },
  {
    "word": "skill"
  },
  {
    "word": "collection"
  },
  {
    "word": "picture"
  },
  {
    "word": "city"
  },
  {
    "word": "evening"
  },
  {
    "word": "variety"
  },
  {
    "word": "progress"
  },
  {
    "word": "memory"
  },
  {
    "word": "voice"
  },
  {
    "word": "family"
  },
  {
    "word": "wife"
  },
  {
    "word": "night"
  },
  {
    "word": "mother"
  },
  {
    "word": "music"
  },
  {
    "word": "discovery"
  },
  {
    "word": "dream"
  },
  {
    "word": "adventures"
  },
  {
    "word": "friend"
  },
  {
    "word": "opportunities"
  },
  {
    "word": "memories"
  },
  {
    "word": "rapidity"
  },
  {
    "word": "scene"
  },
  {
    "word": "tales"
  },
  {
    "word": "friends"
  },
  {
    "word": "love"
  },
  {
    "word": "views"
  },
  {
    "word": "gifts"
  },
  {
    "word": "smile"
  },
  {
    "word": "moment"
  },
  {
    "word": "art"
  },
  {
    "word": "husband"
  },
  {
    "word": "event"
  },
  {
    "word": "creature"
  },
  {
    "word": "invention"
  },
  {
    "word": "performance"
  },
  {
    "word": "teacher"
  },
  {
    "word": "trip"
  },
  {
    "word": "experiences"
  },
  {
    "word": "discoveries"
  },
  {
    "word": "surprise"
  },
  {
    "word": "machine"
  },
  {
    "word": "food"
  },
  {
    "word": "pictures"
  }
]
